('G:\\Virtual AI\\flappy Bird Game\\build\\main\\main.exe',
 True,
 False,
 True,
 None,
 None,
 False,
 False,
 '<?xml version="1.0" encoding="UTF-8" standalone="yes"?><assembly xmlns="urn:schemas-microsoft-com:asm.v1" manifestVersion="1.0"><assemblyIdentity type="win32" name="main" processorArchitecture="amd64" version="1.0.0.0"/><dependency><dependentAssembly><assemblyIdentity type="win32" name="Microsoft.Windows.Common-Controls" language="*" processorArchitecture="*" version="6.0.0.0" publicKeyToken="6595b64144ccf1df"/><compatibility xmlns="urn:schemas-microsoft-com:compatibility.v1"/></dependentAssembly></dependency><compatibility xmlns="urn:schemas-microsoft-com:compatibility.v1"><application><supportedOS Id="{e2011457-1546-43c5-a5fe-008deee3d3f0}"/><supportedOS Id="{35138b9a-5d96-4fbd-8e2d-a2440225f93a}"/><supportedOS Id="{4a2f28e3-53b9-4441-ba9c-d69d4a4a6e38}"/><supportedOS Id="{1f676c76-80e1-4239-95bb-83d0f6d0da78}"/><supportedOS Id="{8e0f7a12-bfb3-4fe8-b9a5-48fd50a15a9a}"/></application></compatibility></assembly>',
 True,
 'main.pkg',
 [('PYZ-00.pyz',
   'G:\\Virtual AI\\flappy Bird Game\\build\\main\\PYZ-00.pyz',
   'PYZ'),
  ('struct', 'g:\\virtua~1\\flappy~1\\flappy~1\\lib\\struct.pyo', 'PYMODULE'),
  ('pyimod01_os_path',
   'g:\\virtua~1\\flappy~1\\flappy~1\\lib\\site-packages\\PyInstaller\\loader\\pyimod01_os_path.pyc',
   'PYMODULE'),
  ('pyimod02_archive',
   'g:\\virtua~1\\flappy~1\\flappy~1\\lib\\site-packages\\PyInstaller\\loader\\pyimod02_archive.pyc',
   'PYMODULE'),
  ('pyimod03_importers',
   'g:\\virtua~1\\flappy~1\\flappy~1\\lib\\site-packages\\PyInstaller\\loader\\pyimod03_importers.pyc',
   'PYMODULE'),
  ('pyiboot01_bootstrap',
   'g:\\virtua~1\\flappy~1\\flappy~1\\lib\\site-packages\\PyInstaller\\loader\\pyiboot01_bootstrap.py',
   'PYSOURCE'),
  ('pyi_rth__tkinter',
   'G:\\Virtual AI\\flappy Bird '
   'Game\\flappy_env\\Lib\\site-packages\\PyInstaller\\loader\\rthooks\\pyi_rth__tkinter.py',
   'PYSOURCE'),
  ('pyi_rth_multiprocessing',
   'G:\\Virtual AI\\flappy Bird '
   'Game\\flappy_env\\Lib\\site-packages\\PyInstaller\\loader\\rthooks\\pyi_rth_multiprocessing.py',
   'PYSOURCE'),
  ('pyi_rth_pkgres',
   'G:\\Virtual AI\\flappy Bird '
   'Game\\flappy_env\\Lib\\site-packages\\PyInstaller\\loader\\rthooks\\pyi_rth_pkgres.py',
   'PYSOURCE'),
  ('pyi_rth_win32comgenpy',
   'G:\\Virtual AI\\flappy Bird '
   'Game\\flappy_env\\Lib\\site-packages\\PyInstaller\\loader\\rthooks\\pyi_rth_win32comgenpy.py',
   'PYSOURCE'),
  ('main', 'G:\\Virtual AI\\flappy Bird Game\\main.py', 'PYSOURCE'),
  ('main.exe.manifest',
   'G:\\Virtual AI\\flappy Bird Game\\build\\main\\main.exe.manifest',
   'BINARY')],
 [],
 False,
 False,
 1587090721,
 [('run.exe',
   'g:\\virtua~1\\flappy~1\\flappy~1\\lib\\site-packages\\PyInstaller\\bootloader\\Windows-64bit\\run.exe',
   'EXECUTABLE')])
