('G:\\Virtual AI\\flappy Bird Game\\build\\main\\PKG-00.pkg',
 {'BINARY': 1,
  'DATA': 1,
  'EXECUTABLE': 1,
  'EXTENSION': 1,
  'PYMODULE': 1,
  'PYSOURCE': 1,
  'PYZ': 0},
 [('PYZ-00.pyz',
   'G:\\Virtual AI\\flappy Bird Game\\build\\main\\PYZ-00.pyz',
   'PYZ'),
  ('struct', 'g:\\virtua~1\\flappy~1\\flappy~1\\lib\\struct.pyo', 'PYMODULE'),
  ('pyimod01_os_path',
   'g:\\virtua~1\\flappy~1\\flappy~1\\lib\\site-packages\\PyInstaller\\loader\\pyimod01_os_path.pyc',
   'PYMODULE'),
  ('pyimod02_archive',
   'g:\\virtua~1\\flappy~1\\flappy~1\\lib\\site-packages\\PyInstaller\\loader\\pyimod02_archive.pyc',
   'PYMODULE'),
  ('pyimod03_importers',
   'g:\\virtua~1\\flappy~1\\flappy~1\\lib\\site-packages\\PyInstaller\\loader\\pyimod03_importers.pyc',
   'PYMODULE'),
  ('pyiboot01_bootstrap',
   'g:\\virtua~1\\flappy~1\\flappy~1\\lib\\site-packages\\PyInstaller\\loader\\pyiboot01_bootstrap.py',
   'PYSOURCE'),
  ('pyi_rth__tkinter',
   'G:\\Virtual AI\\flappy Bird '
   'Game\\flappy_env\\Lib\\site-packages\\PyInstaller\\loader\\rthooks\\pyi_rth__tkinter.py',
   'PYSOURCE'),
  ('pyi_rth_multiprocessing',
   'G:\\Virtual AI\\flappy Bird '
   'Game\\flappy_env\\Lib\\site-packages\\PyInstaller\\loader\\rthooks\\pyi_rth_multiprocessing.py',
   'PYSOURCE'),
  ('pyi_rth_pkgres',
   'G:\\Virtual AI\\flappy Bird '
   'Game\\flappy_env\\Lib\\site-packages\\PyInstaller\\loader\\rthooks\\pyi_rth_pkgres.py',
   'PYSOURCE'),
  ('pyi_rth_win32comgenpy',
   'G:\\Virtual AI\\flappy Bird '
   'Game\\flappy_env\\Lib\\site-packages\\PyInstaller\\loader\\rthooks\\pyi_rth_win32comgenpy.py',
   'PYSOURCE'),
  ('main', 'G:\\Virtual AI\\flappy Bird Game\\main.py', 'PYSOURCE'),
  ('main.exe.manifest',
   'G:\\Virtual AI\\flappy Bird Game\\build\\main\\main.exe.manifest',
   'BINARY')],
 True,
 False,
 False,
 [])
