('G:\\Virtual AI\\flappy Bird Game\\build\\main\\PYZ-00.pyz',
 [('win32com',
   'g:\\virtua~1\\flappy~1\\flappy~1\\lib\\site-packages\\win32com\\__init__.py',
   'PYMODULE'),
  ('win32com.server.util',
   'g:\\virtua~1\\flappy~1\\flappy~1\\lib\\site-packages\\win32com\\server\\util.py',
   'PYMODULE'),
  ('win32com.server.dispatcher',
   'g:\\virtua~1\\flappy~1\\flappy~1\\lib\\site-packages\\win32com\\server\\dispatcher.py',
   'PYMODULE'),
  ('win32traceutil',
   'g:\\virtua~1\\flappy~1\\flappy~1\\lib\\site-packages\\win32\\lib\\win32traceutil.py',
   'PYMODULE'),
  ('win32com.util',
   'g:\\virtua~1\\flappy~1\\flappy~1\\lib\\site-packages\\win32com\\util.py',
   'PYMODULE'),
  ('win32con',
   'g:\\virtua~1\\flappy~1\\flappy~1\\lib\\site-packages\\win32\\lib\\win32con.py',
   'PYMODULE'),
  ('win32com.server.exception',
   'g:\\virtua~1\\flappy~1\\flappy~1\\lib\\site-packages\\win32com\\server\\exception.py',
   'PYMODULE'),
  ('winerror',
   'g:\\virtua~1\\flappy~1\\flappy~1\\lib\\site-packages\\win32\\lib\\winerror.py',
   'PYMODULE'),
  ('win32com.server.policy',
   'g:\\virtua~1\\flappy~1\\flappy~1\\lib\\site-packages\\win32com\\server\\policy.py',
   'PYMODULE'),
  ('win32com.client',
   'g:\\virtua~1\\flappy~1\\flappy~1\\lib\\site-packages\\win32com\\client\\__init__.py',
   'PYMODULE'),
  ('win32com.client.makepy',
   'g:\\virtua~1\\flappy~1\\flappy~1\\lib\\site-packages\\win32com\\client\\makepy.py',
   'PYMODULE'),
  ('getopt', 'C:\\Python38\\Lib\\getopt.py', 'PYMODULE'),
  ('gettext', 'C:\\Python38\\Lib\\gettext.py', 'PYMODULE'),
  ('copy', 'g:\\virtua~1\\flappy~1\\flappy~1\\lib\\copy.py', 'PYMODULE'),
  ('struct', 'g:\\virtua~1\\flappy~1\\flappy~1\\lib\\struct.py', 'PYMODULE'),
  ('pywin.dialogs.status',
   'g:\\virtua~1\\flappy~1\\flappy~1\\lib\\site-packages\\Pythonwin\\pywin\\dialogs\\status.py',
   'PYMODULE'),
  ('_strptime', 'C:\\Python38\\Lib\\_strptime.py', 'PYMODULE'),
  ('datetime', 'C:\\Python38\\Lib\\datetime.py', 'PYMODULE'),
  ('calendar', 'C:\\Python38\\Lib\\calendar.py', 'PYMODULE'),
  ('argparse', 'C:\\Python38\\Lib\\argparse.py', 'PYMODULE'),
  ('textwrap', 'C:\\Python38\\Lib\\textwrap.py', 'PYMODULE'),
  ('threading', 'C:\\Python38\\Lib\\threading.py', 'PYMODULE'),
  ('_threading_local', 'C:\\Python38\\Lib\\_threading_local.py', 'PYMODULE'),
  ('contextlib', 'C:\\Python38\\Lib\\contextlib.py', 'PYMODULE'),
  ('pywin.mfc.thread',
   'g:\\virtua~1\\flappy~1\\flappy~1\\lib\\site-packages\\Pythonwin\\pywin\\mfc\\thread.py',
   'PYMODULE'),
  ('pywin.mfc.object',
   'g:\\virtua~1\\flappy~1\\flappy~1\\lib\\site-packages\\Pythonwin\\pywin\\mfc\\object.py',
   'PYMODULE'),
  ('pywin.mfc.dialog',
   'g:\\virtua~1\\flappy~1\\flappy~1\\lib\\site-packages\\Pythonwin\\pywin\\mfc\\dialog.py',
   'PYMODULE'),
  ('pywin.mfc.window',
   'g:\\virtua~1\\flappy~1\\flappy~1\\lib\\site-packages\\Pythonwin\\pywin\\mfc\\window.py',
   'PYMODULE'),
  ('pywin.mfc',
   'g:\\virtua~1\\flappy~1\\flappy~1\\lib\\site-packages\\Pythonwin\\pywin\\mfc\\__init__.py',
   'PYMODULE'),
  ('pywin.dialogs',
   'g:\\virtua~1\\flappy~1\\flappy~1\\lib\\site-packages\\Pythonwin\\pywin\\dialogs\\__init__.py',
   'PYMODULE'),
  ('pywin',
   'g:\\virtua~1\\flappy~1\\flappy~1\\lib\\site-packages\\Pythonwin\\pywin\\__init__.py',
   'PYMODULE'),
  ('win32com.client.gencache',
   'g:\\virtua~1\\flappy~1\\flappy~1\\lib\\site-packages\\win32com\\client\\gencache.py',
   'PYMODULE'),
  ('zipfile', 'C:\\Python38\\Lib\\zipfile.py', 'PYMODULE'),
  ('py_compile', 'C:\\Python38\\Lib\\py_compile.py', 'PYMODULE'),
  ('ntpath', 'g:\\virtua~1\\flappy~1\\flappy~1\\lib\\ntpath.py', 'PYMODULE'),
  ('string', 'C:\\Python38\\Lib\\string.py', 'PYMODULE'),
  ('genericpath',
   'g:\\virtua~1\\flappy~1\\flappy~1\\lib\\genericpath.py',
   'PYMODULE'),
  ('importlib.machinery',
   'g:\\virtua~1\\flappy~1\\flappy~1\\lib\\importlib\\machinery.py',
   'PYMODULE'),
  ('importlib',
   'g:\\virtua~1\\flappy~1\\flappy~1\\lib\\importlib\\__init__.py',
   'PYMODULE'),
  ('importlib._bootstrap',
   'g:\\virtua~1\\flappy~1\\flappy~1\\lib\\importlib\\_bootstrap.py',
   'PYMODULE'),
  ('importlib._bootstrap_external',
   'g:\\virtua~1\\flappy~1\\flappy~1\\lib\\importlib\\_bootstrap_external.py',
   'PYMODULE'),
  ('importlib.metadata',
   'g:\\virtua~1\\flappy~1\\flappy~1\\lib\\importlib\\metadata.py',
   'PYMODULE'),
  ('importlib.abc',
   'g:\\virtua~1\\flappy~1\\flappy~1\\lib\\importlib\\abc.py',
   'PYMODULE'),
  ('configparser', 'C:\\Python38\\Lib\\configparser.py', 'PYMODULE'),
  ('pathlib', 'C:\\Python38\\Lib\\pathlib.py', 'PYMODULE'),
  ('urllib.parse', 'C:\\Python38\\Lib\\urllib\\parse.py', 'PYMODULE'),
  ('urllib', 'C:\\Python38\\Lib\\urllib\\__init__.py', 'PYMODULE'),
  ('fnmatch', 'g:\\virtua~1\\flappy~1\\flappy~1\\lib\\fnmatch.py', 'PYMODULE'),
  ('email', 'C:\\Python38\\Lib\\email\\__init__.py', 'PYMODULE'),
  ('email.parser', 'C:\\Python38\\Lib\\email\\parser.py', 'PYMODULE'),
  ('email._policybase', 'C:\\Python38\\Lib\\email\\_policybase.py', 'PYMODULE'),
  ('email.utils', 'C:\\Python38\\Lib\\email\\utils.py', 'PYMODULE'),
  ('email._parseaddr', 'C:\\Python38\\Lib\\email\\_parseaddr.py', 'PYMODULE'),
  ('socket', 'C:\\Python38\\Lib\\socket.py', 'PYMODULE'),
  ('selectors', 'C:\\Python38\\Lib\\selectors.py', 'PYMODULE'),
  ('email.feedparser', 'C:\\Python38\\Lib\\email\\feedparser.py', 'PYMODULE'),
  ('email.message', 'C:\\Python38\\Lib\\email\\message.py', 'PYMODULE'),
  ('email.policy', 'C:\\Python38\\Lib\\email\\policy.py', 'PYMODULE'),
  ('email.contentmanager',
   'C:\\Python38\\Lib\\email\\contentmanager.py',
   'PYMODULE'),
  ('email.quoprimime', 'C:\\Python38\\Lib\\email\\quoprimime.py', 'PYMODULE'),
  ('email.headerregistry',
   'C:\\Python38\\Lib\\email\\headerregistry.py',
   'PYMODULE'),
  ('email.iterators', 'C:\\Python38\\Lib\\email\\iterators.py', 'PYMODULE'),
  ('email.generator', 'C:\\Python38\\Lib\\email\\generator.py', 'PYMODULE'),
  ('email._encoded_words',
   'C:\\Python38\\Lib\\email\\_encoded_words.py',
   'PYMODULE'),
  ('base64', 'g:\\virtua~1\\flappy~1\\flappy~1\\lib\\base64.py', 'PYMODULE'),
  ('quopri', 'C:\\Python38\\Lib\\quopri.py', 'PYMODULE'),
  ('uu', 'C:\\Python38\\Lib\\uu.py', 'PYMODULE'),
  ('optparse', 'C:\\Python38\\Lib\\optparse.py', 'PYMODULE'),
  ('email._header_value_parser',
   'C:\\Python38\\Lib\\email\\_header_value_parser.py',
   'PYMODULE'),
  ('email.header', 'C:\\Python38\\Lib\\email\\header.py', 'PYMODULE'),
  ('email.base64mime', 'C:\\Python38\\Lib\\email\\base64mime.py', 'PYMODULE'),
  ('email.charset', 'C:\\Python38\\Lib\\email\\charset.py', 'PYMODULE'),
  ('email.encoders', 'C:\\Python38\\Lib\\email\\encoders.py', 'PYMODULE'),
  ('email.errors', 'C:\\Python38\\Lib\\email\\errors.py', 'PYMODULE'),
  ('csv', 'C:\\Python38\\Lib\\csv.py', 'PYMODULE'),
  ('tokenize',
   'g:\\virtua~1\\flappy~1\\flappy~1\\lib\\tokenize.py',
   'PYMODULE'),
  ('token', 'g:\\virtua~1\\flappy~1\\flappy~1\\lib\\token.py', 'PYMODULE'),
  ('lzma', 'C:\\Python38\\Lib\\lzma.py', 'PYMODULE'),
  ('_compression', 'C:\\Python38\\Lib\\_compression.py', 'PYMODULE'),
  ('bz2', 'C:\\Python38\\Lib\\bz2.py', 'PYMODULE'),
  ('stat', 'g:\\virtua~1\\flappy~1\\flappy~1\\lib\\stat.py', 'PYMODULE'),
  ('posixpath',
   'g:\\virtua~1\\flappy~1\\flappy~1\\lib\\posixpath.py',
   'PYMODULE'),
  ('importlib.util',
   'g:\\virtua~1\\flappy~1\\flappy~1\\lib\\importlib\\util.py',
   'PYMODULE'),
  ('pickle', 'C:\\Python38\\Lib\\pickle.py', 'PYMODULE'),
  ('pprint', 'C:\\Python38\\Lib\\pprint.py', 'PYMODULE'),
  ('doctest', 'C:\\Python38\\Lib\\doctest.py', 'PYMODULE'),
  ('unittest', 'C:\\Python38\\Lib\\unittest\\__init__.py', 'PYMODULE'),
  ('unittest.signals', 'C:\\Python38\\Lib\\unittest\\signals.py', 'PYMODULE'),
  ('signal', 'C:\\Python38\\Lib\\signal.py', 'PYMODULE'),
  ('unittest.main', 'C:\\Python38\\Lib\\unittest\\main.py', 'PYMODULE'),
  ('unittest.runner', 'C:\\Python38\\Lib\\unittest\\runner.py', 'PYMODULE'),
  ('unittest.loader', 'C:\\Python38\\Lib\\unittest\\loader.py', 'PYMODULE'),
  ('unittest.suite', 'C:\\Python38\\Lib\\unittest\\suite.py', 'PYMODULE'),
  ('unittest.case', 'C:\\Python38\\Lib\\unittest\\case.py', 'PYMODULE'),
  ('logging', 'C:\\Python38\\Lib\\logging\\__init__.py', 'PYMODULE'),
  ('unittest.async_case',
   'C:\\Python38\\Lib\\unittest\\async_case.py',
   'PYMODULE'),
  ('asyncio', 'C:\\Python38\\Lib\\asyncio\\__init__.py', 'PYMODULE'),
  ('asyncio.unix_events',
   'C:\\Python38\\Lib\\asyncio\\unix_events.py',
   'PYMODULE'),
  ('asyncio.log', 'C:\\Python38\\Lib\\asyncio\\log.py', 'PYMODULE'),
  ('subprocess', 'C:\\Python38\\Lib\\subprocess.py', 'PYMODULE'),
  ('asyncio.windows_events',
   'C:\\Python38\\Lib\\asyncio\\windows_events.py',
   'PYMODULE'),
  ('asyncio.windows_utils',
   'C:\\Python38\\Lib\\asyncio\\windows_utils.py',
   'PYMODULE'),
  ('asyncio.selector_events',
   'C:\\Python38\\Lib\\asyncio\\selector_events.py',
   'PYMODULE'),
  ('ssl', 'C:\\Python38\\Lib\\ssl.py', 'PYMODULE'),
  ('asyncio.proactor_events',
   'C:\\Python38\\Lib\\asyncio\\proactor_events.py',
   'PYMODULE'),
  ('asyncio.base_subprocess',
   'C:\\Python38\\Lib\\asyncio\\base_subprocess.py',
   'PYMODULE'),
  ('asyncio.subprocess',
   'C:\\Python38\\Lib\\asyncio\\subprocess.py',
   'PYMODULE'),
  ('asyncio.streams', 'C:\\Python38\\Lib\\asyncio\\streams.py', 'PYMODULE'),
  ('asyncio.queues', 'C:\\Python38\\Lib\\asyncio\\queues.py', 'PYMODULE'),
  ('asyncio.runners', 'C:\\Python38\\Lib\\asyncio\\runners.py', 'PYMODULE'),
  ('asyncio.events', 'C:\\Python38\\Lib\\asyncio\\events.py', 'PYMODULE'),
  ('contextvars', 'C:\\Python38\\Lib\\contextvars.py', 'PYMODULE'),
  ('asyncio.trsock', 'C:\\Python38\\Lib\\asyncio\\trsock.py', 'PYMODULE'),
  ('asyncio.staggered', 'C:\\Python38\\Lib\\asyncio\\staggered.py', 'PYMODULE'),
  ('typing', 'C:\\Python38\\Lib\\typing.py', 'PYMODULE'),
  ('asyncio.tasks', 'C:\\Python38\\Lib\\asyncio\\tasks.py', 'PYMODULE'),
  ('concurrent.futures',
   'C:\\Python38\\Lib\\concurrent\\futures\\__init__.py',
   'PYMODULE'),
  ('concurrent.futures.thread',
   'C:\\Python38\\Lib\\concurrent\\futures\\thread.py',
   'PYMODULE'),
  ('queue', 'C:\\Python38\\Lib\\queue.py', 'PYMODULE'),
  ('concurrent.futures.process',
   'C:\\Python38\\Lib\\concurrent\\futures\\process.py',
   'PYMODULE'),
  ('multiprocessing.queues',
   'C:\\Python38\\Lib\\multiprocessing\\queues.py',
   'PYMODULE'),
  ('multiprocessing.synchronize',
   'C:\\Python38\\Lib\\multiprocessing\\synchronize.py',
   'PYMODULE'),
  ('multiprocessing.heap',
   'C:\\Python38\\Lib\\multiprocessing\\heap.py',
   'PYMODULE'),
  ('bisect', 'g:\\virtua~1\\flappy~1\\flappy~1\\lib\\bisect.py', 'PYMODULE'),
  ('multiprocessing.resource_tracker',
   'C:\\Python38\\Lib\\multiprocessing\\resource_tracker.py',
   'PYMODULE'),
  ('multiprocessing.spawn',
   'C:\\Python38\\Lib\\multiprocessing\\spawn.py',
   'PYMODULE'),
  ('runpy', 'C:\\Python38\\Lib\\runpy.py', 'PYMODULE'),
  ('pkgutil', 'C:\\Python38\\Lib\\pkgutil.py', 'PYMODULE'),
  ('zipimport', 'C:\\Python38\\Lib\\zipimport.py', 'PYMODULE'),
  ('multiprocessing.process',
   'C:\\Python38\\Lib\\multiprocessing\\process.py',
   'PYMODULE'),
  ('multiprocessing.util',
   'C:\\Python38\\Lib\\multiprocessing\\util.py',
   'PYMODULE'),
  ('multiprocessing.forkserver',
   'C:\\Python38\\Lib\\multiprocessing\\forkserver.py',
   'PYMODULE'),
  ('test.support', 'C:\\Python38\\Lib\\test\\support\\__init__.py', 'PYMODULE'),
  ('decimal', 'C:\\Python38\\Lib\\decimal.py', 'PYMODULE'),
  ('_pydecimal', 'C:\\Python38\\Lib\\_pydecimal.py', 'PYMODULE'),
  ('numbers', 'C:\\Python38\\Lib\\numbers.py', 'PYMODULE'),
  ('distutils.spawn', 'C:\\Python38\\Lib\\distutils\\spawn.py', 'PYMODULE'),
  ('distutils.log', 'C:\\Python38\\Lib\\distutils\\log.py', 'PYMODULE'),
  ('distutils.debug', 'C:\\Python38\\Lib\\distutils\\debug.py', 'PYMODULE'),
  ('distutils.errors', 'C:\\Python38\\Lib\\distutils\\errors.py', 'PYMODULE'),
  ('distutils.sysconfig',
   'C:\\Python38\\Lib\\distutils\\sysconfig.py',
   'PYMODULE'),
  ('distutils.text_file',
   'C:\\Python38\\Lib\\distutils\\text_file.py',
   'PYMODULE'),
  ('_osx_support', 'C:\\Python38\\Lib\\_osx_support.py', 'PYMODULE'),
  ('distutils.util', 'C:\\Python38\\Lib\\distutils\\util.py', 'PYMODULE'),
  ('distutils.filelist',
   'C:\\Python38\\Lib\\distutils\\filelist.py',
   'PYMODULE'),
  ('distutils.file_util',
   'C:\\Python38\\Lib\\distutils\\file_util.py',
   'PYMODULE'),
  ('distutils.dir_util',
   'C:\\Python38\\Lib\\distutils\\dir_util.py',
   'PYMODULE'),
  ('lib2to3.refactor', 'C:\\Python38\\Lib\\lib2to3\\refactor.py', 'PYMODULE'),
  ('lib2to3.btm_matcher',
   'C:\\Python38\\Lib\\lib2to3\\btm_matcher.py',
   'PYMODULE'),
  ('lib2to3.btm_utils', 'C:\\Python38\\Lib\\lib2to3\\btm_utils.py', 'PYMODULE'),
  ('lib2to3.pgen2.grammar',
   'C:\\Python38\\Lib\\lib2to3\\pgen2\\grammar.py',
   'PYMODULE'),
  ('lib2to3.pygram', 'C:\\Python38\\Lib\\lib2to3\\pygram.py', 'PYMODULE'),
  ('lib2to3.pytree', 'C:\\Python38\\Lib\\lib2to3\\pytree.py', 'PYMODULE'),
  ('lib2to3', 'C:\\Python38\\Lib\\lib2to3\\__init__.py', 'PYMODULE'),
  ('lib2to3.patcomp', 'C:\\Python38\\Lib\\lib2to3\\patcomp.py', 'PYMODULE'),
  ('lib2to3.pgen2.parse',
   'C:\\Python38\\Lib\\lib2to3\\pgen2\\parse.py',
   'PYMODULE'),
  ('lib2to3.pgen2.literals',
   'C:\\Python38\\Lib\\lib2to3\\pgen2\\literals.py',
   'PYMODULE'),
  ('lib2to3.fixer_util',
   'C:\\Python38\\Lib\\lib2to3\\fixer_util.py',
   'PYMODULE'),
  ('lib2to3.pgen2.token',
   'C:\\Python38\\Lib\\lib2to3\\pgen2\\token.py',
   'PYMODULE'),
  ('lib2to3.pgen2.tokenize',
   'C:\\Python38\\Lib\\lib2to3\\pgen2\\tokenize.py',
   'PYMODULE'),
  ('lib2to3.pgen2.driver',
   'C:\\Python38\\Lib\\lib2to3\\pgen2\\driver.py',
   'PYMODULE'),
  ('lib2to3.pgen2.pgen',
   'C:\\Python38\\Lib\\lib2to3\\pgen2\\pgen.py',
   'PYMODULE'),
  ('lib2to3.pgen2',
   'C:\\Python38\\Lib\\lib2to3\\pgen2\\__init__.py',
   'PYMODULE'),
  ('distutils.dep_util',
   'C:\\Python38\\Lib\\distutils\\dep_util.py',
   'PYMODULE'),
  ('distutils.ccompiler',
   'C:\\Python38\\Lib\\distutils\\ccompiler.py',
   'PYMODULE'),
  ('distutils.fancy_getopt',
   'C:\\Python38\\Lib\\distutils\\fancy_getopt.py',
   'PYMODULE'),
  ('distutils', 'C:\\Python38\\Lib\\distutils\\__init__.py', 'PYMODULE'),
  ('tracemalloc', 'C:\\Python38\\Lib\\tracemalloc.py', 'PYMODULE'),
  ('urllib.request', 'C:\\Python38\\Lib\\urllib\\request.py', 'PYMODULE'),
  ('getpass', 'C:\\Python38\\Lib\\getpass.py', 'PYMODULE'),
  ('nturl2path', 'C:\\Python38\\Lib\\nturl2path.py', 'PYMODULE'),
  ('ftplib', 'C:\\Python38\\Lib\\ftplib.py', 'PYMODULE'),
  ('netrc', 'C:\\Python38\\Lib\\netrc.py', 'PYMODULE'),
  ('shlex', 'C:\\Python38\\Lib\\shlex.py', 'PYMODULE'),
  ('mimetypes', 'C:\\Python38\\Lib\\mimetypes.py', 'PYMODULE'),
  ('http.cookiejar', 'C:\\Python38\\Lib\\http\\cookiejar.py', 'PYMODULE'),
  ('http', 'C:\\Python38\\Lib\\http\\__init__.py', 'PYMODULE'),
  ('urllib.response', 'C:\\Python38\\Lib\\urllib\\response.py', 'PYMODULE'),
  ('http.client', 'C:\\Python38\\Lib\\http\\client.py', 'PYMODULE'),
  ('tkinter', 'C:\\Python38\\Lib\\tkinter\\__init__.py', 'PYMODULE'),
  ('tkinter.constants', 'C:\\Python38\\Lib\\tkinter\\constants.py', 'PYMODULE'),
  ('ctypes.util', 'C:\\Python38\\Lib\\ctypes\\util.py', 'PYMODULE'),
  ('ctypes._aix', 'C:\\Python38\\Lib\\ctypes\\_aix.py', 'PYMODULE'),
  ('ctypes.macholib.dyld',
   'C:\\Python38\\Lib\\ctypes\\macholib\\dyld.py',
   'PYMODULE'),
  ('ctypes.macholib',
   'C:\\Python38\\Lib\\ctypes\\macholib\\__init__.py',
   'PYMODULE'),
  ('ctypes.macholib.dylib',
   'C:\\Python38\\Lib\\ctypes\\macholib\\dylib.py',
   'PYMODULE'),
  ('ctypes.macholib.framework',
   'C:\\Python38\\Lib\\ctypes\\macholib\\framework.py',
   'PYMODULE'),
  ('ctypes.wintypes', 'C:\\Python38\\Lib\\ctypes\\wintypes.py', 'PYMODULE'),
  ('ctypes', 'C:\\Python38\\Lib\\ctypes\\__init__.py', 'PYMODULE'),
  ('ctypes._endian', 'C:\\Python38\\Lib\\ctypes\\_endian.py', 'PYMODULE'),
  ('gzip', 'C:\\Python38\\Lib\\gzip.py', 'PYMODULE'),
  ('test.support.testresult',
   'C:\\Python38\\Lib\\test\\support\\testresult.py',
   'PYMODULE'),
  ('xml.etree.ElementTree',
   'C:\\Python38\\Lib\\xml\\etree\\ElementTree.py',
   'PYMODULE'),
  ('xml.etree.cElementTree',
   'C:\\Python38\\Lib\\xml\\etree\\cElementTree.py',
   'PYMODULE'),
  ('xml.etree.ElementInclude',
   'C:\\Python38\\Lib\\xml\\etree\\ElementInclude.py',
   'PYMODULE'),
  ('xml.parsers.expat',
   'C:\\Python38\\Lib\\xml\\parsers\\expat.py',
   'PYMODULE'),
  ('xml.parsers', 'C:\\Python38\\Lib\\xml\\parsers\\__init__.py', 'PYMODULE'),
  ('xml', 'C:\\Python38\\Lib\\xml\\__init__.py', 'PYMODULE'),
  ('xml.sax.expatreader',
   'C:\\Python38\\Lib\\xml\\sax\\expatreader.py',
   'PYMODULE'),
  ('xml.sax.saxutils', 'C:\\Python38\\Lib\\xml\\sax\\saxutils.py', 'PYMODULE'),
  ('xml.sax', 'C:\\Python38\\Lib\\xml\\sax\\__init__.py', 'PYMODULE'),
  ('xml.sax.handler', 'C:\\Python38\\Lib\\xml\\sax\\handler.py', 'PYMODULE'),
  ('xml.sax._exceptions',
   'C:\\Python38\\Lib\\xml\\sax\\_exceptions.py',
   'PYMODULE'),
  ('xml.sax.xmlreader',
   'C:\\Python38\\Lib\\xml\\sax\\xmlreader.py',
   'PYMODULE'),
  ('xml.etree.ElementPath',
   'C:\\Python38\\Lib\\xml\\etree\\ElementPath.py',
   'PYMODULE'),
  ('xml.etree', 'C:\\Python38\\Lib\\xml\\etree\\__init__.py', 'PYMODULE'),
  ('urllib.error', 'C:\\Python38\\Lib\\urllib\\error.py', 'PYMODULE'),
  ('sysconfig', 'C:\\Python38\\Lib\\sysconfig.py', 'PYMODULE'),
  ('platform', 'C:\\Python38\\Lib\\platform.py', 'PYMODULE'),
  ('plistlib', 'C:\\Python38\\Lib\\plistlib.py', 'PYMODULE'),
  ('nntplib', 'C:\\Python38\\Lib\\nntplib.py', 'PYMODULE'),
  ('logging.handlers', 'C:\\Python38\\Lib\\logging\\handlers.py', 'PYMODULE'),
  ('win32evtlogutil',
   'g:\\virtua~1\\flappy~1\\flappy~1\\lib\\site-packages\\win32\\lib\\win32evtlogutil.py',
   'PYMODULE'),
  ('smtplib', 'C:\\Python38\\Lib\\smtplib.py', 'PYMODULE'),
  ('hmac', 'g:\\virtua~1\\flappy~1\\flappy~1\\lib\\hmac.py', 'PYMODULE'),
  ('hashlib', 'g:\\virtua~1\\flappy~1\\flappy~1\\lib\\hashlib.py', 'PYMODULE'),
  ('test', 'C:\\Python38\\Lib\\test\\__init__.py', 'PYMODULE'),
  ('multiprocessing.context',
   'C:\\Python38\\Lib\\multiprocessing\\context.py',
   'PYMODULE'),
  ('multiprocessing.popen_spawn_win32',
   'C:\\Python38\\Lib\\multiprocessing\\popen_spawn_win32.py',
   'PYMODULE'),
  ('multiprocessing.popen_forkserver',
   'C:\\Python38\\Lib\\multiprocessing\\popen_forkserver.py',
   'PYMODULE'),
  ('multiprocessing.popen_spawn_posix',
   'C:\\Python38\\Lib\\multiprocessing\\popen_spawn_posix.py',
   'PYMODULE'),
  ('multiprocessing.popen_fork',
   'C:\\Python38\\Lib\\multiprocessing\\popen_fork.py',
   'PYMODULE'),
  ('multiprocessing.sharedctypes',
   'C:\\Python38\\Lib\\multiprocessing\\sharedctypes.py',
   'PYMODULE'),
  ('multiprocessing.pool',
   'C:\\Python38\\Lib\\multiprocessing\\pool.py',
   'PYMODULE'),
  ('multiprocessing.dummy',
   'C:\\Python38\\Lib\\multiprocessing\\dummy\\__init__.py',
   'PYMODULE'),
  ('multiprocessing.dummy.connection',
   'C:\\Python38\\Lib\\multiprocessing\\dummy\\connection.py',
   'PYMODULE'),
  ('multiprocessing.managers',
   'C:\\Python38\\Lib\\multiprocessing\\managers.py',
   'PYMODULE'),
  ('multiprocessing.shared_memory',
   'C:\\Python38\\Lib\\multiprocessing\\shared_memory.py',
   'PYMODULE'),
  ('secrets', 'C:\\Python38\\Lib\\secrets.py', 'PYMODULE'),
  ('multiprocessing.reduction',
   'C:\\Python38\\Lib\\multiprocessing\\reduction.py',
   'PYMODULE'),
  ('multiprocessing.resource_sharer',
   'C:\\Python38\\Lib\\multiprocessing\\resource_sharer.py',
   'PYMODULE'),
  ('multiprocessing.connection',
   'C:\\Python38\\Lib\\multiprocessing\\connection.py',
   'PYMODULE'),
  ('xmlrpc.client', 'C:\\Python38\\Lib\\xmlrpc\\client.py', 'PYMODULE'),
  ('xmlrpc', 'C:\\Python38\\Lib\\xmlrpc\\__init__.py', 'PYMODULE'),
  ('multiprocessing',
   'C:\\Python38\\Lib\\multiprocessing\\__init__.py',
   'PYMODULE'),
  ('concurrent.futures._base',
   'C:\\Python38\\Lib\\concurrent\\futures\\_base.py',
   'PYMODULE'),
  ('concurrent', 'C:\\Python38\\Lib\\concurrent\\__init__.py', 'PYMODULE'),
  ('asyncio.base_tasks',
   'C:\\Python38\\Lib\\asyncio\\base_tasks.py',
   'PYMODULE'),
  ('asyncio.locks', 'C:\\Python38\\Lib\\asyncio\\locks.py', 'PYMODULE'),
  ('asyncio.sslproto', 'C:\\Python38\\Lib\\asyncio\\sslproto.py', 'PYMODULE'),
  ('asyncio.transports',
   'C:\\Python38\\Lib\\asyncio\\transports.py',
   'PYMODULE'),
  ('asyncio.base_events',
   'C:\\Python38\\Lib\\asyncio\\base_events.py',
   'PYMODULE'),
  ('asyncio.protocols', 'C:\\Python38\\Lib\\asyncio\\protocols.py', 'PYMODULE'),
  ('asyncio.futures', 'C:\\Python38\\Lib\\asyncio\\futures.py', 'PYMODULE'),
  ('asyncio.coroutines',
   'C:\\Python38\\Lib\\asyncio\\coroutines.py',
   'PYMODULE'),
  ('asyncio.base_futures',
   'C:\\Python38\\Lib\\asyncio\\base_futures.py',
   'PYMODULE'),
  ('asyncio.exceptions',
   'C:\\Python38\\Lib\\asyncio\\exceptions.py',
   'PYMODULE'),
  ('asyncio.format_helpers',
   'C:\\Python38\\Lib\\asyncio\\format_helpers.py',
   'PYMODULE'),
  ('asyncio.constants', 'C:\\Python38\\Lib\\asyncio\\constants.py', 'PYMODULE'),
  ('unittest.result', 'C:\\Python38\\Lib\\unittest\\result.py', 'PYMODULE'),
  ('unittest.util', 'C:\\Python38\\Lib\\unittest\\util.py', 'PYMODULE'),
  ('pdb', 'C:\\Python38\\Lib\\pdb.py', 'PYMODULE'),
  ('pydoc', 'C:\\Python38\\Lib\\pydoc.py', 'PYMODULE'),
  ('webbrowser', 'C:\\Python38\\Lib\\webbrowser.py', 'PYMODULE'),
  ('http.server', 'C:\\Python38\\Lib\\http\\server.py', 'PYMODULE'),
  ('socketserver', 'C:\\Python38\\Lib\\socketserver.py', 'PYMODULE'),
  ('html', 'C:\\Python38\\Lib\\html\\__init__.py', 'PYMODULE'),
  ('html.entities', 'C:\\Python38\\Lib\\html\\entities.py', 'PYMODULE'),
  ('pydoc_data.topics', 'C:\\Python38\\Lib\\pydoc_data\\topics.py', 'PYMODULE'),
  ('pydoc_data', 'C:\\Python38\\Lib\\pydoc_data\\__init__.py', 'PYMODULE'),
  ('tty', 'C:\\Python38\\Lib\\tty.py', 'PYMODULE'),
  ('code', 'C:\\Python38\\Lib\\code.py', 'PYMODULE'),
  ('codeop', 'C:\\Python38\\Lib\\codeop.py', 'PYMODULE'),
  ('dis', 'C:\\Python38\\Lib\\dis.py', 'PYMODULE'),
  ('opcode', 'C:\\Python38\\Lib\\opcode.py', 'PYMODULE'),
  ('bdb', 'C:\\Python38\\Lib\\bdb.py', 'PYMODULE'),
  ('cmd', 'C:\\Python38\\Lib\\cmd.py', 'PYMODULE'),
  ('inspect', 'C:\\Python38\\Lib\\inspect.py', 'PYMODULE'),
  ('ast', 'C:\\Python38\\Lib\\ast.py', 'PYMODULE'),
  ('difflib', 'C:\\Python38\\Lib\\difflib.py', 'PYMODULE'),
  ('__future__',
   'g:\\virtua~1\\flappy~1\\flappy~1\\lib\\__future__.py',
   'PYMODULE'),
  ('_compat_pickle', 'C:\\Python38\\Lib\\_compat_pickle.py', 'PYMODULE'),
  ('glob', 'C:\\Python38\\Lib\\glob.py', 'PYMODULE'),
  ('win32com.client.selecttlb',
   'g:\\virtua~1\\flappy~1\\flappy~1\\lib\\site-packages\\win32com\\client\\selecttlb.py',
   'PYMODULE'),
  ('pywin.dialogs.list',
   'g:\\virtua~1\\flappy~1\\flappy~1\\lib\\site-packages\\Pythonwin\\pywin\\dialogs\\list.py',
   'PYMODULE'),
  ('commctrl',
   'g:\\virtua~1\\flappy~1\\flappy~1\\lib\\site-packages\\win32\\lib\\commctrl.py',
   'PYMODULE'),
  ('win32com.client.genpy',
   'g:\\virtua~1\\flappy~1\\flappy~1\\lib\\site-packages\\win32com\\client\\genpy.py',
   'PYMODULE'),
  ('win32com.client.CLSIDToClass',
   'g:\\virtua~1\\flappy~1\\flappy~1\\lib\\site-packages\\win32com\\client\\CLSIDToClass.py',
   'PYMODULE'),
  ('win32com.client.dynamic',
   'g:\\virtua~1\\flappy~1\\flappy~1\\lib\\site-packages\\win32com\\client\\dynamic.py',
   'PYMODULE'),
  ('win32com.client.build',
   'g:\\virtua~1\\flappy~1\\flappy~1\\lib\\site-packages\\win32com\\client\\build.py',
   'PYMODULE'),
  ('pywintypes',
   'g:\\virtua~1\\flappy~1\\flappy~1\\lib\\site-packages\\win32\\lib\\pywintypes.py',
   'PYMODULE'),
  ('win32com.server',
   'g:\\virtua~1\\flappy~1\\flappy~1\\lib\\site-packages\\win32com\\server\\__init__.py',
   'PYMODULE'),
  ('win32com.universal',
   'g:\\virtua~1\\flappy~1\\flappy~1\\lib\\site-packages\\win32com\\universal.py',
   'PYMODULE'),
  ('win32com.client.util',
   'g:\\virtua~1\\flappy~1\\flappy~1\\lib\\site-packages\\win32com\\client\\util.py',
   'PYMODULE'),
  ('imp', 'g:\\virtua~1\\flappy~1\\flappy~1\\lib\\imp.py', 'PYMODULE'),
  ('pythoncom',
   'g:\\virtua~1\\flappy~1\\flappy~1\\lib\\site-packages\\pythoncom.py',
   'PYMODULE'),
  ('tempfile',
   'g:\\virtua~1\\flappy~1\\flappy~1\\lib\\tempfile.py',
   'PYMODULE'),
  ('shutil', 'g:\\virtua~1\\flappy~1\\flappy~1\\lib\\shutil.py', 'PYMODULE'),
  ('tarfile', 'g:\\virtua~1\\flappy~1\\flappy~1\\lib\\tarfile.py', 'PYMODULE'),
  ('os', 'g:\\virtua~1\\flappy~1\\flappy~1\\lib\\os.py', 'PYMODULE'),
  ('pkg_resources',
   'g:\\virtua~1\\flappy~1\\flappy~1\\lib\\site-packages\\pkg_resources\\__init__.py',
   'PYMODULE'),
  ('pkg_resources._vendor',
   'g:\\virtua~1\\flappy~1\\flappy~1\\lib\\site-packages\\pkg_resources\\_vendor\\__init__.py',
   'PYMODULE'),
  ('pkg_resources._vendor.appdirs',
   'g:\\virtua~1\\flappy~1\\flappy~1\\lib\\site-packages\\pkg_resources\\_vendor\\appdirs.py',
   'PYMODULE'),
  ('win32com.shell.shellcon',
   'g:\\virtua~1\\flappy~1\\flappy~1\\lib\\site-packages\\win32comext\\shell\\shellcon.py',
   'PYMODULE'),
  ('win32com.shell',
   'g:\\virtua~1\\flappy~1\\flappy~1\\lib\\site-packages\\win32comext\\shell\\__init__.py',
   'PYMODULE'),
  ('pkg_resources._vendor.pyparsing',
   'g:\\virtua~1\\flappy~1\\flappy~1\\lib\\site-packages\\pkg_resources\\_vendor\\pyparsing.py',
   'PYMODULE'),
  ('uuid', 'C:\\Python38\\Lib\\uuid.py', 'PYMODULE'),
  ('netbios',
   'g:\\virtua~1\\flappy~1\\flappy~1\\lib\\site-packages\\win32\\lib\\netbios.py',
   'PYMODULE'),
  ('pkg_resources._vendor.packaging.version',
   'g:\\virtua~1\\flappy~1\\flappy~1\\lib\\site-packages\\pkg_resources\\_vendor\\packaging\\version.py',
   'PYMODULE'),
  ('pkg_resources._vendor.packaging.requirements',
   'g:\\virtua~1\\flappy~1\\flappy~1\\lib\\site-packages\\pkg_resources\\_vendor\\packaging\\requirements.py',
   'PYMODULE'),
  ('pkg_resources._vendor.six',
   'g:\\virtua~1\\flappy~1\\flappy~1\\lib\\site-packages\\pkg_resources\\_vendor\\six.py',
   'PYMODULE'),
  ('pkg_resources._vendor.packaging._structures',
   'g:\\virtua~1\\flappy~1\\flappy~1\\lib\\site-packages\\pkg_resources\\_vendor\\packaging\\_structures.py',
   'PYMODULE'),
  ('pkg_resources._vendor.packaging.utils',
   'g:\\virtua~1\\flappy~1\\flappy~1\\lib\\site-packages\\pkg_resources\\_vendor\\packaging\\utils.py',
   'PYMODULE'),
  ('pkg_resources._vendor.packaging._compat',
   'g:\\virtua~1\\flappy~1\\flappy~1\\lib\\site-packages\\pkg_resources\\_vendor\\packaging\\_compat.py',
   'PYMODULE'),
  ('pkg_resources._vendor.packaging.__about__',
   'g:\\virtua~1\\flappy~1\\flappy~1\\lib\\site-packages\\pkg_resources\\_vendor\\packaging\\__about__.py',
   'PYMODULE'),
  ('pkg_resources._vendor.packaging.markers',
   'g:\\virtua~1\\flappy~1\\flappy~1\\lib\\site-packages\\pkg_resources\\_vendor\\packaging\\markers.py',
   'PYMODULE'),
  ('pkg_resources._vendor.packaging',
   'g:\\virtua~1\\flappy~1\\flappy~1\\lib\\site-packages\\pkg_resources\\_vendor\\packaging\\__init__.py',
   'PYMODULE'),
  ('pkg_resources._vendor.packaging.specifiers',
   'g:\\virtua~1\\flappy~1\\flappy~1\\lib\\site-packages\\pkg_resources\\_vendor\\packaging\\specifiers.py',
   'PYMODULE'),
  ('pkg_resources.py31compat',
   'g:\\virtua~1\\flappy~1\\flappy~1\\lib\\site-packages\\pkg_resources\\py31compat.py',
   'PYMODULE'),
  ('pkg_resources.extern',
   'g:\\virtua~1\\flappy~1\\flappy~1\\lib\\site-packages\\pkg_resources\\extern\\__init__.py',
   'PYMODULE'),
  ('stringprep', 'C:\\Python38\\Lib\\stringprep.py', 'PYMODULE'),
  ('_py_abc', 'C:\\Python38\\Lib\\_py_abc.py', 'PYMODULE'),
  ('json', 'C:\\Python38\\Lib\\json\\__init__.py', 'PYMODULE'),
  ('json.encoder', 'C:\\Python38\\Lib\\json\\encoder.py', 'PYMODULE'),
  ('json.decoder', 'C:\\Python38\\Lib\\json\\decoder.py', 'PYMODULE'),
  ('json.scanner', 'C:\\Python38\\Lib\\json\\scanner.py', 'PYMODULE'),
  ('pygame.locals',
   'g:\\virtua~1\\flappy~1\\flappy~1\\lib\\site-packages\\pygame\\locals.py',
   'PYMODULE'),
  ('pygame',
   'g:\\virtua~1\\flappy~1\\flappy~1\\lib\\site-packages\\pygame\\__init__.py',
   'PYMODULE'),
  ('pygame.colordict',
   'g:\\virtua~1\\flappy~1\\flappy~1\\lib\\site-packages\\pygame\\colordict.py',
   'PYMODULE'),
  ('pygame.macosx',
   'g:\\virtua~1\\flappy~1\\flappy~1\\lib\\site-packages\\pygame\\macosx.py',
   'PYMODULE'),
  ('pygame.pkgdata',
   'g:\\virtua~1\\flappy~1\\flappy~1\\lib\\site-packages\\pygame\\pkgdata.py',
   'PYMODULE'),
  ('pygame.sndarray',
   'g:\\virtua~1\\flappy~1\\flappy~1\\lib\\site-packages\\pygame\\sndarray.py',
   'PYMODULE'),
  ('pygame._numpysndarray',
   'g:\\virtua~1\\flappy~1\\flappy~1\\lib\\site-packages\\pygame\\_numpysndarray.py',
   'PYMODULE'),
  ('pygame.surfarray',
   'g:\\virtua~1\\flappy~1\\flappy~1\\lib\\site-packages\\pygame\\surfarray.py',
   'PYMODULE'),
  ('pygame._numpysurfarray',
   'g:\\virtua~1\\flappy~1\\flappy~1\\lib\\site-packages\\pygame\\_numpysurfarray.py',
   'PYMODULE'),
  ('pygame.sysfont',
   'g:\\virtua~1\\flappy~1\\flappy~1\\lib\\site-packages\\pygame\\sysfont.py',
   'PYMODULE'),
  ('pygame.ftfont',
   'g:\\virtua~1\\flappy~1\\flappy~1\\lib\\site-packages\\pygame\\ftfont.py',
   'PYMODULE'),
  ('pygame.threads',
   'g:\\virtua~1\\flappy~1\\flappy~1\\lib\\site-packages\\pygame\\threads\\__init__.py',
   'PYMODULE'),
  ('pygame.sprite',
   'g:\\virtua~1\\flappy~1\\flappy~1\\lib\\site-packages\\pygame\\sprite.py',
   'PYMODULE'),
  ('pygame.cursors',
   'g:\\virtua~1\\flappy~1\\flappy~1\\lib\\site-packages\\pygame\\cursors.py',
   'PYMODULE'),
  ('pygame.compat',
   'g:\\virtua~1\\flappy~1\\flappy~1\\lib\\site-packages\\pygame\\compat.py',
   'PYMODULE'),
  ('pygame.version',
   'g:\\virtua~1\\flappy~1\\flappy~1\\lib\\site-packages\\pygame\\version.py',
   'PYMODULE'),
  ('random', 'g:\\virtua~1\\flappy~1\\flappy~1\\lib\\random.py', 'PYMODULE')])
